module kumparan-article-crud

go 1.14

replace ottodigital.id => /Users/putri/go/src/ottodigital.id

require (
	github.com/Shopify/sarama v1.27.0
	github.com/alecthomas/template v0.0.0-20190718012654-fb15b899a751
	github.com/alecthomas/units v0.0.0-20210208195552-ff826a37aa15 // indirect
	github.com/appleboy/go-fcm v0.1.5
	github.com/astaxie/beego v1.12.2
	github.com/chilts/sid v0.0.0-20190607042430-660e94789ec9
	github.com/cpuguy83/go-md2man/v2 v2.0.0 // indirect
	github.com/gin-contrib/cors v1.3.1
	github.com/gin-gonic/gin v1.6.3
	github.com/go-ini/ini v1.57.0 // indirect
	github.com/go-openapi/spec v0.19.9 // indirect
	github.com/go-openapi/swag v0.19.9 // indirect
	github.com/go-redis/redis/v8 v8.8.2
	github.com/google/shlex v0.0.0-20191202100458-e7afc7fbc510 // indirect
	github.com/google/uuid v1.1.1 // indirect
	github.com/hhkbp2/go-logging v0.3.0
	github.com/hhkbp2/go-strftime v0.0.0-20150709091403-d82166ec6782 // indirect
	github.com/jinzhu/gorm v1.9.16
	github.com/json-iterator/go v1.1.10
	github.com/kelseyhightower/envconfig v1.4.0
	github.com/mailru/easyjson v0.7.6 // indirect
	github.com/mervick/aes-everywhere v1.1.3 // indirect
	github.com/mervick/aes-everywhere/go/aes256 v0.0.0-20210128133454-fbde3fc04b27 // indirect
	github.com/minio/minio-go v6.0.14+incompatible
	github.com/natefinch/lumberjack v2.0.0+incompatible // indirect
	github.com/nicksnyder/go-i18n v1.10.1 // indirect
	github.com/opentracing-contrib/go-zap v0.0.0-20190214083200-641545003d88
	github.com/opentracing/opentracing-go v1.2.0
	github.com/parnurzeal/gorequest v0.2.16
	github.com/pelletier/go-toml v1.8.1 // indirect
	github.com/pkg/errors v0.9.1
	github.com/rs/zerolog v1.19.0
	github.com/shopspring/decimal v1.2.0
	github.com/smartystreets/goconvey v1.6.4
	github.com/stretchr/testify v1.7.0
	github.com/swaggo/files v0.0.0-20190704085106-630677cd5c14
	github.com/swaggo/gin-swagger v1.2.0
	github.com/swaggo/swag v1.6.7
	github.com/uber/jaeger-client-go v2.25.0+incompatible
	github.com/uber/jaeger-lib v2.2.0+incompatible // indirect
	github.com/urfave/cli v1.22.4 // indirect
	github.com/urfave/cli/v2 v2.2.0 // indirect
	github.com/vjeantet/jodaTime v1.0.0
	go.mongodb.org/mongo-driver v1.5.1
	go.uber.org/zap v1.15.0
	golang.org/x/crypto v0.0.0-20210220033148-5ea612d1eb83
	golang.org/x/tools v0.0.0-20201224043029-2b0845dc783e
	gopkg.in/alecthomas/gometalinter.v2 v2.0.12 // indirect
	gopkg.in/alecthomas/kingpin.v3-unstable v3.0.0-20191105091915-95d230a53780 // indirect
	gopkg.in/redis.v5 v5.2.9
	gopkg.in/yaml.v2 v2.4.0 // indirect
	moul.io/http2curl v1.0.0 // indirect
	ottodigital.id v0.0.0-00010101000000-000000000000
)
